<svg xmlns="http://www.w3.org/2000/svg" width="27" height="27">
    <path fill="#4BAEC6" fill-rule="evenodd" d="M13.5 27C6.038 27 0 20.961 0 13.5 0 6.038 6.039 0 13.5 0 20.962 0 27 6.039 27 13.5 27 20.962 20.961 27 13.5 27zm0-23.836C7.801 3.164 3.164 7.801 3.164 13.5c0 5.699 4.637 10.336 10.336 10.336 5.699 0 10.336-4.637 10.336-10.336 0-5.699-4.637-10.336-10.336-10.336zm0 19.09c-4.827 0-8.754-3.927-8.754-8.754S8.673 4.746 13.5 4.746s8.754 3.927 8.754 8.754-3.927 8.754-8.754 8.754zM8.042 12.63h-.791c-.437 0-.791.354-.791.791 0 .437.354.791.791.791h.791c.437 0 .791-.354.791-.791 0-.437-.354-.791-.791-.791zm6.328-5.537c0-.437-.354-.791-.791-.791-.437 0-.791.354-.791.791v.791c0 .437.354.791.791.791.437 0 .791-.354.791-.791v-.791zm-.232 5.768l-3.145-3.145c-.309-.309-.81-.309-1.119 0-.309.309-.309.809 0 1.118l2.586 2.587-1.813 1.814c-.309.308-.309.809 0 1.118.309.309.809.309 1.118 0l2.373-2.373c.309-.309.309-.81 0-1.119zm.232 6.097c0-.437-.354-.791-.791-.791-.437 0-.791.354-.791.791v.791c0 .437.354.791.791.791.437 0 .791-.354.791-.791v-.791zm5.537-6.328h-.791c-.437 0-.791.354-.791.791 0 .437.354.791.791.791h.791c.437 0 .791-.354.791-.791 0-.437-.354-.791-.791-.791z"/>
</svg>
