<svg xmlns="http://www.w3.org/2000/svg" width="30" height="25">
    <path fill="#B5B5B5" fill-rule="evenodd" d="M29.183 22.675V8.256h-4.6V6.47h-2.268L15 0 7.685 6.47H5.417v1.786h-4.6v14.419H0V25h30v-2.325h-.817zM4.017 17.603h-1.2v-2.351h1.2v2.351zm0-4.443h-1.2v-2.351h1.2v2.351zM15 2.682l4.283 3.788h-8.566L15 2.682zm-3.267 18.526h-2.2V8.629h2.2v12.579zm8.734 0h-2.2V8.629h2.2v12.579zm6.716-3.605h-1.2v-2.351h1.2v2.351zm0-4.443h-1.2v-2.351h1.2v2.351z"/>
</svg>
