<svg xmlns="http://www.w3.org/2000/svg" width="27" height="27">
    <path fill="#B5B5B5" fill-rule="evenodd" d="M25.202 26.064c-.592.417-1.329.936-2.705.936-1.375 0-2.112-.519-2.704-.936-.535-.376-.921-.648-1.795-.648-.875 0-1.261.272-1.795.648-.593.417-1.33.936-2.705.936s-2.112-.519-2.704-.936c-.535-.376-.921-.648-1.795-.648-.875 0-1.261.272-1.795.648-.592.417-1.329.936-2.705.936-1.375 0-2.112-.519-2.704-.936-.534-.376-.92-.648-1.795-.648v-1.584c1.375 0 2.112.519 2.705.936.534.376.92.648 1.794.648.875 0 1.261-.272 1.795-.648.593-.417 1.33-.936 2.705-.936s2.112.519 2.704.936c.535.376.921.648 1.795.648.875 0 1.261-.272 1.795-.648.592-.417 1.33-.936 2.705-.936s2.112.519 2.705.936c.534.376.92.648 1.795.648.874 0 1.26-.272 1.794-.648.593-.417 1.33-.936 2.705-.936v1.584c-.875 0-1.261.272-1.795.648zm.949-12.757l-.813-.459c-1.313-.743-2.732-1.26-4.215-1.536l-.208-.039-.162-.138c-.551-.473-1.158-.866-1.802-1.174l-3.519 9.68c1.775.155 3.518.525 5.2 1.106 1.443.498 2.824 1.144 4.128 1.93-.603.251-1.047.563-1.378.796-.462.325-.51.359-.885.359-.374 0-.422-.034-.885-.359-.65-.458-1.739-1.224-3.614-1.224-1.876 0-2.964.766-3.615 1.224-.462.325-.511.359-.885.359s-.422-.034-.885-.359c-.65-.458-1.739-1.224-3.614-1.224-1.876 0-2.964.766-3.615 1.224-.462.325-.51.359-.885.359-.374 0-.422-.034-.885-.359-.33-.233-.774-.545-1.377-.796 1.304-.785 2.685-1.432 4.128-1.93 2.289-.79 4.69-1.191 7.134-1.191l.279.003 3.686-10.14c-.666-.172-1.356-.261-2.054-.261h-.08l-.213.002-.184-.104c-1.314-.744-2.732-1.26-4.215-1.537L9.8 7.348l.319-.878c1.55-4.263 6.098-6.582 10.396-5.443L20.888 0l1.487.542-.373 1.026c1.841.864 3.308 2.332 4.178 4.2.982 2.109 1.085 4.474.29 6.661l-.319.878zm-15.328-2.938l-1.179 1.873 1.956 1.031-1.956 1.031 1.179 1.873-2.209-.087.086 2.213-1.87-1.182-1.03 1.96-1.03-1.96-1.87 1.182.087-2.213-2.21.087 1.18-1.873L0 13.273l1.957-1.031-1.18-1.873 2.21.087L2.9 8.243l1.87 1.182 1.03-1.96 1.03 1.96L8.7 8.243l-.086 2.213 2.209-.087zm-5.023 0c-1.602 0-2.9 1.3-2.9 2.904 0 1.604 1.298 2.904 2.9 2.904 1.602 0 2.9-1.3 2.9-2.904 0-1.604-1.298-2.904-2.9-2.904z"/>
</svg>
